^C:\USERS\ALEXL\ONEDRIVE\DOCUMENTS\VISUAL STUDIO 2015\PROJECTS\M04\M04\SOURCE.CPP
C:\USERS\ALEXL\ONEDRIVE\DOCUMENTS\VISUAL STUDIO 2015\PROJECTS\M04\M04\DEBUG\VC140.PDB
C:\USERS\ALEXL\ONEDRIVE\DOCUMENTS\VISUAL STUDIO 2015\PROJECTS\M04\M04\DEBUG\VC140.IDB
C:\USERS\ALEXL\ONEDRIVE\DOCUMENTS\VISUAL STUDIO 2015\PROJECTS\M04\M04\DEBUG\SOURCE.OBJ
